Model assessment – STA221
…
What is the range of \(R^2\)? Does \(R^2\) have units?

Interpreting \(R^2\)

Using R to look at these quantities

Augmented data frame

Use the augment() function from the broom package to add columns for predicted values, residuals, and other observation-level model statistics

life_exp_aug <- augment(model_ii)
life_exp_aug

# A tibble: 140 × 8
   life_exp income_inequality .fitted .resid    .hat .sigma   .cooksd .std.resid
      <dbl>             <dbl>   <dbl>  <dbl>   <dbl>  <dbl>     <dbl>      <dbl>
 1     63.8              28.2    65.8 -1.96  0.0125    4.45 0.00125       -0.444
 2     78.2              12.2    76.9  1.29  0.0116    4.45 0.000498       0.292
 3     59.9              32.4    62.8 -2.93  0.0193    4.44 0.00437       -0.667
 4     76.2              14      75.7  0.542 0.00972   4.45 0.0000739      0.123
 5     74.6               8.6    79.4 -4.82  0.0168    4.43 0.0102        -1.10 
 6     83                 8.3    79.6  3.37  0.0173    4.44 0.00515        0.766
 7     81.3               7.4    80.3  1.04  0.0189    4.45 0.000540       0.237
 8     72.5              10.1    78.4 -5.88  0.0144    4.42 0.0130        -1.33 
 9     71.8              27.6    66.2  5.62  0.0118    4.43 0.00972        1.28 
10     74                 6.5    80.9 -6.89  0.0207    4.41 0.0260        -1.57 
# ℹ 130 more rows
…
